%YAML 1.1
%TAG !u! tag:unity3d.com,2011:
--- !u!21 &2100000
Material:
  serializedVersion: 6
  m_ObjectHideFlags: 0
  m_CorrespondingSourceObject: {fileID: 0}
  m_PrefabInternal: {fileID: 0}
  m_Name: chgriver_3
  m_Shader: {fileID: 4800000, guid: f4e630c029fc8574b9cd499a0c163b58, type: 3}
  m_ShaderKeywords: 
  m_LightmapFlags: 1
  m_EnableInstancingVariants: 0
  m_DoubleSidedGI: 0
  m_CustomRenderQueue: -1
  stringTagMap: {}
  disabledShaderPasses: []
  m_SavedProperties:
    serializedVersion: 3
    m_TexEnvs:
    - _BigCascade:
        m_Texture: {fileID: 2800000, guid: 62eeec30a68f2d14996a082e3939b7c8, type: 3}
        m_Scale: {x: 1, y: 1}
        m_Offset: {x: 0, y: 0}
    - _BigCascadeNormal:
        m_Texture: {fileID: 2800000, guid: 323d1bf6999942d4785aaed026eb2f23, type: 3}
        m_Scale: {x: 1, y: 3}
        m_Offset: {x: 0, y: 0}
    - _BigCascadeWaterTess:
        m_Texture: {fileID: 2800000, guid: 1ce13a71fe2afd746b7fe0fcfca08591, type: 3}
        m_Scale: {x: 1, y: 1}
        m_Offset: {x: 0, y: 0}
    - _Cascade:
        m_Texture: {fileID: 2800000, guid: c68566ea293cd18429979fc9e8eb51c3, type: 3}
        m_Scale: {x: 1, y: 1}
        m_Offset: {x: 1, y: 0}
    - _CascadeNormal:
        m_Texture: {fileID: 2800000, guid: 53b00ac4b7ee2fb4681d46ce396bde98, type: 3}
        m_Scale: {x: 1, y: 1}
        m_Offset: {x: 0, y: 0}
    - _DummyTex:
        m_Texture: {fileID: 0}
        m_Scale: {x: 1, y: 1}
        m_Offset: {x: 0, y: 0}
    - _Foam:
        m_Texture: {fileID: 2800000, guid: 5d15a98fc0e7b4b4cb50bf0fd6279ee3, type: 3}
        m_Scale: {x: 3, y: 3}
        m_Offset: {x: 0, y: 0}
    - _Noise:
        m_Texture: {fileID: 2800000, guid: cdec882b86a6f9b46b4c79d6a9891f1c, type: 3}
        m_Scale: {x: 2, y: 2}
        m_Offset: {x: 0, y: 0}
    - _Normal:
        m_Texture: {fileID: 2800000, guid: fb6566c21f717904f83743a5a76dd0b0, type: 3}
        m_Scale: {x: 20, y: 20}
        m_Offset: {x: 0, y: 0}
    - _Normal2:
        m_Texture: {fileID: 2800000, guid: fd8b85b15dfe0ad4cbbc5613a12722c6, type: 3}
        m_Scale: {x: 1, y: 1}
        m_Offset: {x: 0, y: 0}
    - _Skybox:
        m_Texture: {fileID: 8900000, guid: 56a68e301a0ff55469ae441c0112d256, type: 3}
        m_Scale: {x: 1, y: 1}
        m_Offset: {x: 0, y: 0}
    - _SlowCascade:
        m_Texture: {fileID: 2800000, guid: 2f347103d0fd8084f9e979cf611d6fa1, type: 3}
        m_Scale: {x: 1, y: 1}
        m_Offset: {x: 0, y: 0}
    - _SmallCascade:
        m_Texture: {fileID: 2800000, guid: 2f347103d0fd8084f9e979cf611d6fa1, type: 3}
        m_Scale: {x: 1, y: 1}
        m_Offset: {x: 0, y: 0}
    - _SmallCascadeNormal:
        m_Texture: {fileID: 2800000, guid: 53b00ac4b7ee2fb4681d46ce396bde98, type: 3}
        m_Scale: {x: 3, y: 3}
        m_Offset: {x: 0, y: 0}
    - _SmallCascadeWaterTess:
        m_Texture: {fileID: 2800000, guid: 9f1d5e83b0b47104684e6a5b22948a21, type: 3}
        m_Scale: {x: 1, y: 1}
        m_Offset: {x: 0, y: 0}
    - _TextureSample0:
        m_Texture: {fileID: 2800000, guid: fd8b85b15dfe0ad4cbbc5613a12722c6, type: 3}
        m_Scale: {x: 1, y: 1}
        m_Offset: {x: 0, y: 0}
    - _TextureSample1:
        m_Texture: {fileID: 2800000, guid: e28dc97a9541e3642a48c0e3886688c5, type: 3}
        m_Scale: {x: 10, y: 10}
        m_Offset: {x: 0, y: 0}
    - _WaterCascadeTesselation:
        m_Texture: {fileID: 2800000, guid: 43cd82d77572cc74188065122245d3bd, type: 3}
        m_Scale: {x: 1, y: 1}
        m_Offset: {x: 0, y: 0}
    - _WaterNormal:
        m_Texture: {fileID: 2800000, guid: 53b00ac4b7ee2fb4681d46ce396bde98, type: 3}
        m_Scale: {x: 3, y: 3}
        m_Offset: {x: 0, y: 0}
    - _WaterNormal1:
        m_Texture: {fileID: 2800000, guid: 53b00ac4b7ee2fb4681d46ce396bde98, type: 3}
        m_Scale: {x: 1, y: 1}
        m_Offset: {x: 0, y: 0}
    - _WaterNormall:
        m_Texture: {fileID: 2800000, guid: 53b00ac4b7ee2fb4681d46ce396bde98, type: 3}
        m_Scale: {x: 1, y: 1}
        m_Offset: {x: 0, y: 0}
    - _WaterTess:
        m_Texture: {fileID: 2800000, guid: 43cd82d77572cc74188065122245d3bd, type: 3}
        m_Scale: {x: 0.7, y: 0.7}
        m_Offset: {x: 0, y: 0}
    - _WaterTessCascade:
        m_Texture: {fileID: 2800000, guid: c68566ea293cd18429979fc9e8eb51c3, type: 3}
        m_Scale: {x: 0.7, y: 0.7}
        m_Offset: {x: 0, y: 0}
    - _WaterTesselation:
        m_Texture: {fileID: 2800000, guid: 9f1d5e83b0b47104684e6a5b22948a21, type: 3}
        m_Scale: {x: 1, y: 1}
        m_Offset: {x: 0, y: 0}
    - _texcoord:
        m_Texture: {fileID: 0}
        m_Scale: {x: 1, y: 1}
        m_Offset: {x: 0, y: 0}
    m_Floats:
    - _AOPower: 1
    - _BigCascadeAngle: 7
    - _BigCascadeAngleFalloff: 2.3
    - _BigCascadeFalloff: 80
    - _BigCascadeFoamFalloff: 4
    - _BigCascadeNoisePower: 2.71
    - _BigCascadeNormalInfluence: 0
    - _BigCascadeNormalScale: 0.7
    - _BigCascadeSmoothness: 0
    - _BigCascadeSpecular: 0.84
    - _BigCascadeSpeed: 4
    - _BigCascadeTransparency: 0.002
    - _BigCascadeWaterNormalScale: 0.9
    - _BigCascadeWaterTessScale: 0.3
    - _CascadeFalloff: 0.84
    - _CascadeFalloffSlow: 5.86
    - _CascadeMetalic: 0
    - _CascadeNormalInfluence: 20
    - _CascadePower: 0.96
    - _CascadeSharpness: 100
    - _CascadeSmoothness: 0.1
    - _CascadeSpecular: 0
    - _CascadeSpeed: 0.6
    - _CascadeTiling: 8
    - _CascadeWaterNormalScale: 0.9
    - _CascadeWaterTessScale: 0.06
    - _CascadesNoisePower: 2.71
    - _ChromaticAberration: 0.1
    - _Cutoff: 0.5
    - _Depth: 0.98
    - _DepthFalloff: -13
    - _Distortion: 0.03
    - _EdgeLength: 25
    - _FastCascadeAngle: 90
    - _FastCascadeFalloff: 80
    - _FastCascadeNormalInfluence: 0
    - _Float0: 0.0192
    - _Float1: 0
    - _Float10: 33.1
    - _Float3: 0.9
    - _Float7: -11.22
    - _Foam: 1.79
    - _FoamCascade: 15
    - _FoamDepth: 1
    - _FoamFalloff: -10.9
    - _FoamMetalic: 0
    - _FoamPower: 4
    - _FoamSmoothness: 0
    - _FoamSpecular: 0
    - _FoamSpeed: 0.3
    - _FoamTiling: 2
    - _Foamfalloff: -4
    - _MaskClipValue: 0.5
    - _NormalScale: 0.5
    - _Occlusion: 0.48
    - _Reflection: 0.66
    - _ReflectionPower: 0.083
    - _ShalowDepth: 0.7
    - _ShalowFalloff: -1.2
    - _SlowCascadeAngle: 0.001
    - _SlowCascadeFalloff: 80
    - _SlowCascadeFoamFalloff: 5.86
    - _SlowCascadeSpeed: 0.15
    - _SlowWaterSpeed: 0.5
    - _SmallCascadeAngle: 0.3
    - _SmallCascadeAngleFalloff: 0.5
    - _SmallCascadeFalloff: 80
    - _SmallCascadeFoamFalloff: 1.95
    - _SmallCascadeNoisePower: 3.08
    - _SmallCascadeNormalInfluence: 20
    - _SmallCascadeNormalScale: 1
    - _SmallCascadeSmoothness: 0
    - _SmallCascadeSpecular: 0.8
    - _SmallCascadeSpeed: 4
    - _SmallCascadeWaterNormalScale: 0.69
    - _SmallCascadeWaterTessScale: 0.08
    - _Smoothness: 0.9
    - _Specular: 0.1
    - _TessMax: 11
    - _TessMaxDisp: 11
    - _TessMin: 0
    - _TessPhongStrength: 0.5
    - _TessValue: 25
    - _ToggleSwitch1: 0
    - _UVDirectionV1U0: 1
    - _UVVDirection1UDirection0: 1
    - _Udirection: 0
    - _Vdirection: 0
    - _WaterDeepTranslucencyPower: 0.1
    - _WaterDepth: 0.143
    - _WaterFallOfBorder: 9.32
    - _WaterFalloff: 0.143
    - _WaterFalloffBorder: 8.46
    - _WaterMetalic: 0.081
    - _WaterNormalScale: 0.5
    - _WaterShalowDepth: 3.85
    - _WaterShalowFalloff: -3.43
    - _WaterShalowTranslucencyPower: 0
    - _WaterSmoothness: 0.85
    - _WaterSpecular: 0.1
    - _WaterSpeed: 0.5
    - _WaterTessScale: 0.06
    - _WaterTiling: 100
    - _WaterTranslucencyPower: 0.55
    - __dirty: 0
    - _test: 0.35
    m_Colors:
    - _BigCascadeColor: {r: 20, g: 20, b: 20, a: 0}
    - _BigCascadeMainSpeed: {r: 0, g: 0.1, b: 0, a: 0}
    - _BigCascadeMixSpeed: {r: 0.01, g: 0.1, b: 0, a: 0}
    - _CascadeColor: {r: 20, g: 20, b: 20, a: 0}
    - _Color0: {r: 0, g: 0.6749488, b: 0.8088235, a: 0}
    - _Color1: {r: 0, g: 0.048731543, b: 0.22794023, a: 0}
    - _DeepColor: {r: 0.6666667, g: 0.5882353, b: 0.3529412, a: 0}
    - _FoamColor: {r: 20, g: 20, b: 20, a: 0}
    - _FoamSpeed: {r: -0.001, g: 0.018, b: 0, a: 0}
    - _NoiseSpeed: {r: -0.1, g: -0.3, b: 0, a: 0}
    - _ShalowColor: {r: 0, g: 0, b: 0, a: 0}
    - _SlowCascadeColor: {r: 20, g: 20, b: 20, a: 0}
    - _SmallCascadeColor: {r: 20, g: 20, b: 20, a: 0}
    - _SmallCascadeMainSpeed: {r: 0, g: 0.005, b: 0, a: 0}
    - _SmallCascadeMixSpeed: {r: 0.01, g: 0.05, b: 0, a: 0}
    - _SpecColor: {r: 1, g: 1, b: 1, a: 1}
    - _WaterMainSpeed: {r: 0.01, g: 0, b: 0, a: 0}
    - _WaterMixSpeed: {r: -0.007, g: 0.01, b: 0, a: 0}
