%YAML 1.1
%TAG !u! tag:unity3d.com,2011:
--- !u!21 &2100000
Material:
  serializedVersion: 6
  m_ObjectHideFlags: 0
  m_CorrespondingSourceObject: {fileID: 0}
  m_PrefabInternal: {fileID: 0}
  m_Name: Leaves_3
  m_Shader: {fileID: 14000, guid: 0000000000000000f000000000000000, type: 0}
  m_ShaderKeywords: EFFECT_BUMP EFFECT_HUE_VARIATION GEOM_TYPE_LEAF _ALPHABLEND_ON
    _NORMALMAP
  m_LightmapFlags: 4
  m_EnableInstancingVariants: 1
  m_DoubleSidedGI: 1
  m_CustomRenderQueue: -1
  stringTagMap: {}
  disabledShaderPasses: []
  m_SavedProperties:
    serializedVersion: 3
    m_TexEnvs:
    - MossAlbedoRGB:
        m_Texture: {fileID: 0}
        m_Scale: {x: 1, y: 1}
        m_Offset: {x: 0, y: 0}
    - _BumpMap:
        m_Texture: {fileID: 2800000, guid: a9ac9515bb682d647a146bcbeaf94d42, type: 3}
        m_Scale: {x: 1, y: 1}
        m_Offset: {x: 0, y: 0}
    - _CascadesTextures:
        m_Texture: {fileID: 0}
        m_Scale: {x: 1, y: 1}
        m_Offset: {x: 0, y: 0}
    - _CoverHeightG:
        m_Texture: {fileID: 0}
        m_Scale: {x: 1, y: 1}
        m_Offset: {x: 0, y: 0}
    - _CoverMetalicRAmbientOcclusionGSmothnessA:
        m_Texture: {fileID: 0}
        m_Scale: {x: 1, y: 1}
        m_Offset: {x: 0, y: 0}
    - _CoverNormalRGB:
        m_Texture: {fileID: 0}
        m_Scale: {x: 1, y: 1}
        m_Offset: {x: 0, y: 0}
    - _DetailAlbedoMap:
        m_Texture: {fileID: 0}
        m_Scale: {x: 1, y: 1}
        m_Offset: {x: 0, y: 0}
    - _DetailMask:
        m_Texture: {fileID: 0}
        m_Scale: {x: 1, y: 1}
        m_Offset: {x: 0, y: 0}
    - _DetailNormalMap:
        m_Texture: {fileID: 0}
        m_Scale: {x: 1, y: 1}
        m_Offset: {x: 0, y: 0}
    - _DetailTex:
        m_Texture: {fileID: 0}
        m_Scale: {x: 1, y: 1}
        m_Offset: {x: 0, y: 0}
    - _EmissionMap:
        m_Texture: {fileID: 0}
        m_Scale: {x: 1, y: 1}
        m_Offset: {x: 0, y: 0}
    - _Foam:
        m_Texture: {fileID: 0}
        m_Scale: {x: 1, y: 1}
        m_Offset: {x: 0, y: 0}
    - _MainTex:
        m_Texture: {fileID: 2800000, guid: 07a71897ccb08cc4d9e0cf908a99d780, type: 3}
        m_Scale: {x: 1, y: 1}
        m_Offset: {x: 0, y: 0}
    - _MetalicRAmbientOcclusionGSmoothnessA:
        m_Texture: {fileID: 0}
        m_Scale: {x: 1, y: 1}
        m_Offset: {x: 0, y: 0}
    - _MetallicGlossMap:
        m_Texture: {fileID: 0}
        m_Scale: {x: 1, y: 1}
        m_Offset: {x: 0, y: 0}
    - _OcclusionMap:
        m_Texture: {fileID: 0}
        m_Scale: {x: 1, y: 1}
        m_Offset: {x: 0, y: 0}
    - _ParallaxMap:
        m_Texture: {fileID: 0}
        m_Scale: {x: 1, y: 1}
        m_Offset: {x: 0, y: 0}
    - _SpecGlossMap:
        m_Texture: {fileID: 0}
        m_Scale: {x: 1, y: 1}
        m_Offset: {x: 0, y: 0}
    - _WaterNormal:
        m_Texture: {fileID: 0}
        m_Scale: {x: 1, y: 1}
        m_Offset: {x: 0, y: 0}
    - _texcoord:
        m_Texture: {fileID: 0}
        m_Scale: {x: 1, y: 1}
        m_Offset: {x: 0, y: 0}
    m_Floats:
    - _AOPower: 1
    - _AmbientOcclusionPower: 1
    - _BigCascadeAngle: 90
    - _BigCascadeAngleFalloff: 15
    - _BigCascadeFoamFalloff: 0
    - _BigCascadeNoisePower: 2.71
    - _BigCascadeNormalScale: 0
    - _BigCascadeSmoothness: 0
    - _BigCascadeSpecular: 0
    - _BigCascadeTransparency: 0
    - _BumpScale: 1
    - _CoverAmbientOcclusionPower: 1
    - _CoverHardness: 5
    - _CoverHeightSharpness: 0.3
    - _CoverMaxAngle: 90
    - _CoverMetalicPower: 1
    - _CoverNormalHardness: 0
    - _CoverNormalScale: 0
    - _CoverSmoothnessPower: 1
    - _CoverTiling: 15
    - _Cover_Amount: 0.13
    - _Cover_AmountGrowSpeed: 2
    - _Cover_Min_Height: -1000
    - _Cover_Min_Height_Blending: 1
    - _Cull: 0
    - _Cutoff: 0.359
    - _DetailAlbedoPower: 0
    - _DetailNormalMapScale: 1
    - _Distortion: 0.5
    - _DstBlend: 10
    - _FoamDepth: 0
    - _FoamFalloff: 0
    - _FoamSmoothness: 0
    - _FoamSpecular: 0
    - _GlossMapScale: 1
    - _Glossiness: 0.5
    - _GlossyReflections: 1
    - _GlowRange: 0.6
    - _MetalicPower: 1
    - _Metallic: 0
    - _Mode: 2
    - _NormalScale: 0
    - _OcclusionStrength: 1
    - _Parallax: 0.02
    - _ShalowDepth: 0
    - _ShalowFalloff: 0
    - _SmallCascadeAngle: 90
    - _SmallCascadeAngleFalloff: 5
    - _SmallCascadeFoamFalloff: 0
    - _SmallCascadeNoisePower: 2.71
    - _SmallCascadeNormalScale: 0
    - _SmallCascadeSmoothness: 0
    - _SmallCascadeSpecular: 0
    - _SmoothnessTextureChannel: 0
    - _SmothnessPower: 1
    - _SpecularHighlights: 1
    - _SrcBlend: 5
    - _Strength: 2
    - _TriplanarCoverFalloff: 8
    - _UVSec: 0
    - _UVVDirection1UDirection0: 0
    - _WaterDeepTranslucencyPower: 1
    - _WaterDepth: 0
    - _WaterFalloffBorder: 0
    - _WaterShalowTranslucencyPower: 1
    - _WaterSmoothness: 0
    - _WaterSpecular: 0
    - _WetSmoothness: 0.67
    - _WindQuality: 4
    - _ZWrite: 0
    - __dirty: 1
    m_Colors:
    - _BigCascadeColor: {r: 1, g: 1, b: 1, a: 0}
    - _BigCascadeMainSpeed: {r: 0, g: 0.24, b: 0, a: 0}
    - _BigCascadeMixSpeed: {r: 0.02, g: 0.28, b: 0, a: 0}
    - _Color: {r: 0.4198113, g: 1, b: 0.6474487, a: 1}
    - _CoverAlbedoColor: {r: 1, g: 1, b: 1, a: 1}
    - _DeepColor: {r: 0, g: 0, b: 0, a: 0}
    - _EmissionColor: {r: 0, g: 0, b: 0, a: 1}
    - _FoamColor: {r: 1, g: 1, b: 1, a: 0}
    - _FoamSpeed: {r: -0.001, g: 0.018, b: 0, a: 0}
    - _GlowColor: {r: 1, g: 1, b: 0, a: 1}
    - _HueVariation: {r: 0.46698105, g: 1, b: 0.48788387, a: 0.18039216}
    - _NoiseSpeed: {r: -0.2, g: -0.5, b: 0, a: 0}
    - _NoiseTiling: {r: 1, g: 1, b: 0, a: 0}
    - _ShalowColor: {r: 1, g: 1, b: 1, a: 0}
    - _SmallCascadeColor: {r: 1, g: 1, b: 1, a: 0}
    - _SmallCascadeMainSpeed: {r: 0, g: 0.08, b: 0, a: 0}
    - _SmallCascadeMixSpeed: {r: 0.04, g: 0.08, b: 0, a: 0}
    - _SpecColor: {r: 0.19999996, g: 0.19999996, b: 0.19999996, a: 1}
    - _WaterMainSpeed: {r: 0.01, g: 0, b: 0, a: 0}
    - _WaterMixSpeed: {r: 0.01, g: 0.05, b: 0, a: 0}
    - _WetColor: {r: 0.6691177, g: 0.6691177, b: 0.6691177, a: 1}
