%YAML 1.1
%TAG !u! tag:unity3d.com,2011:
--- !u!78 &1
TagManager:
  serializedVersion: 2
  tags:
  - Land
  - start
  - tosc
  - stone
  - right_hand
  - ray
  - Tree
  - main
  - point_4
  - point_2
  - left_hand
  - point_1
  - point_3
  - water
  - pointparti_3
  - switchbox_1
  - pointparti_1
  - pointparti_2
  - switchbox_3
  - pointparti_4
  - switchbox_2
  - hammer
  - worm_1
  - worm
  - ants
  - Enemy
  - syringe
  - coco
  - waterbox
  - sp_1
  - sp_2
  - sp_3
  - sp_4
  - Spheres
  - GM
  - comboani
  layers:
  - Default
  - TransparentFX
  - Ignore Raycast
  - 
  - Water
  - UI
  - 
  - 
  - FogVolumeShadowCaster
  - FogVolume
  - FogVolumeSurrogate
  - FogVolumeUniform
  - 
  - 
  - 
  - 
  - 
  - 
  - 
  - 
  - 
  - 
  - 
  - 
  - 
  - 
  - 
  - 
  - 
  - 
  - 
  - 
  m_SortingLayers:
  - name: Default
    uniqueID: 0
    locked: 0
