# 3ds Max Wavefront OBJ Exporter v0.97b - (c)2007 guruware
# 创建的文件:16.07.2018 14:27:49

mtllib stone.mtl

#
# object Sphere001
#

v  0.5248 30.3584 0.1414
v  0.5248 18.1212 -16.8876
v  -23.9241 18.7752 -19.9600
v  -41.3651 14.3266 0.1414
v  -19.2490 18.7752 17.0973
v  0.5248 18.7752 24.1206
v  20.2987 15.9257 19.4456
v  28.4892 13.4686 0.1414
v  20.2987 18.7752 -16.8145
# 9 vertices

vn 0.0646 0.9976 -0.0256
vn 0.0370 0.8115 -0.5832
vn -0.2369 0.9382 -0.2524
vn -0.3572 0.9333 0.0376
vn -0.2780 0.9127 0.2994
vn 0.0492 0.8994 0.4344
vn 0.3975 0.8822 0.2524
vn 0.5159 0.8541 0.0665
vn 0.3483 0.9120 -0.2168
# 9 vertex normals

vt 0.5024 0.4153 0.0000
vt 0.8487 0.3684 0.0000
vt 0.9851 0.7023 0.0000
vt 0.6290 0.9818 0.0000
vt 0.2172 0.7138 0.0000
vt 0.0146 0.4536 0.0000
vt 0.0499 0.1666 0.0000
vt 0.4179 0.0106 0.0000
vt 0.7875 0.0945 0.0000
# 9 texture coords

g Sphere001
usemtl wire_225088199
s 1
f 1/1/1 2/2/2 3/3/3 
f 1/1/1 3/3/3 4/4/4 
f 1/1/1 4/4/4 5/5/5 
f 1/1/1 5/5/5 6/6/6 
f 1/1/1 6/6/6 7/7/7 
f 1/1/1 7/7/7 8/8/8 
f 1/1/1 8/8/8 9/9/9 
f 1/1/1 9/9/9 2/2/2 
# 0 polygons - 8 triangles

