%YAML 1.1
%TAG !u! tag:unity3d.com,2011:
--- !u!1001 &100100000
Prefab:
  m_ObjectHideFlags: 1
  serializedVersion: 2
  m_Modification:
    m_TransformParent: {fileID: 0}
    m_Modifications: []
    m_RemovedComponents: []
  m_ParentPrefab: {fileID: 0}
  m_RootGameObject: {fileID: 1940541430423230}
  m_IsPrefabParent: 1
--- !u!1 &1357315518497478
GameObject:
  m_ObjectHideFlags: 0
  m_PrefabParentObject: {fileID: 0}
  m_PrefabInternal: {fileID: 100100000}
  serializedVersion: 5
  m_Component:
  - component: {fileID: 4365717749917304}
  - component: {fileID: 20842128896293004}
  - component: {fileID: 114911583449147074}
  m_Layer: 0
  m_Name: Fog Volume [Clouds] Shadow Camera
  m_TagString: Untagged
  m_Icon: {fileID: 0}
  m_NavMeshLayer: 0
  m_StaticEditorFlags: 0
  m_IsActive: 1
--- !u!1 &1515666497356320
GameObject:
  m_ObjectHideFlags: 0
  m_PrefabParentObject: {fileID: 0}
  m_PrefabInternal: {fileID: 100100000}
  serializedVersion: 5
  m_Component:
  - component: {fileID: 4814953122824756}
  - component: {fileID: 20975967656252160}
  - component: {fileID: 114820844535047198}
  m_Layer: 0
  m_Name: Fog Volume [Clouds] Shadow Camera
  m_TagString: Untagged
  m_Icon: {fileID: 0}
  m_NavMeshLayer: 0
  m_StaticEditorFlags: 0
  m_IsActive: 0
--- !u!1 &1758287297954040
GameObject:
  m_ObjectHideFlags: 0
  m_PrefabParentObject: {fileID: 0}
  m_PrefabInternal: {fileID: 100100000}
  serializedVersion: 5
  m_Component:
  - component: {fileID: 4597563840193018}
  - component: {fileID: 33226959580973564}
  - component: {fileID: 64136162470719580}
  - component: {fileID: 23686942730645932}
  m_Layer: 0
  m_Name: Horizon
  m_TagString: Untagged
  m_Icon: {fileID: 0}
  m_NavMeshLayer: 0
  m_StaticEditorFlags: 0
  m_IsActive: 1
--- !u!1 &1940541430423230
GameObject:
  m_ObjectHideFlags: 0
  m_PrefabParentObject: {fileID: 0}
  m_PrefabInternal: {fileID: 100100000}
  serializedVersion: 5
  m_Component:
  - component: {fileID: 4241199123354982}
  - component: {fileID: 23061123961430808}
  - component: {fileID: 114460814969243368}
  - component: {fileID: 114057160989940048}
  - component: {fileID: 33052729237368482}
  - component: {fileID: 114645908948767442}
  - component: {fileID: 114871609041711360}
  m_Layer: 9
  m_Name: Fog Volume [Clouds]
  m_TagString: Untagged
  m_Icon: {fileID: 2800000, guid: 228d0518a8dc08f47847b61368a37c5f, type: 3}
  m_NavMeshLayer: 0
  m_StaticEditorFlags: 64
  m_IsActive: 1
--- !u!4 &4241199123354982
Transform:
  m_ObjectHideFlags: 1
  m_PrefabParentObject: {fileID: 0}
  m_PrefabInternal: {fileID: 100100000}
  m_GameObject: {fileID: 1940541430423230}
  m_LocalRotation: {x: 0, y: 0, z: 0, w: 1}
  m_LocalPosition: {x: 0, y: 304, z: 0}
  m_LocalScale: {x: 1, y: 1, z: 1}
  m_Children:
  - {fileID: 4597563840193018}
  - {fileID: 4365717749917304}
  - {fileID: 4814953122824756}
  m_Father: {fileID: 0}
  m_RootOrder: 0
  m_LocalEulerAnglesHint: {x: 0, y: 0, z: 0}
--- !u!4 &4365717749917304
Transform:
  m_ObjectHideFlags: 1
  m_PrefabParentObject: {fileID: 0}
  m_PrefabInternal: {fileID: 100100000}
  m_GameObject: {fileID: 1357315518497478}
  m_LocalRotation: {x: 0.7071068, y: -0, z: -0, w: 0.7071068}
  m_LocalPosition: {x: 0, y: 1087.6001, z: 0.00012207031}
  m_LocalScale: {x: 1, y: 1, z: 1}
  m_Children: []
  m_Father: {fileID: 4241199123354982}
  m_RootOrder: 1
  m_LocalEulerAnglesHint: {x: 0, y: 0, z: 0}
--- !u!4 &4597563840193018
Transform:
  m_ObjectHideFlags: 1
  m_PrefabParentObject: {fileID: 0}
  m_PrefabInternal: {fileID: 100100000}
  m_GameObject: {fileID: 1758287297954040}
  m_LocalRotation: {x: -0, y: -0, z: -0, w: 1}
  m_LocalPosition: {x: -90.30359, y: -79, z: 146.02675}
  m_LocalScale: {x: 1, y: 1, z: 1}
  m_Children: []
  m_Father: {fileID: 4241199123354982}
  m_RootOrder: 0
  m_LocalEulerAnglesHint: {x: 0, y: 0, z: 0}
--- !u!4 &4814953122824756
Transform:
  m_ObjectHideFlags: 1
  m_PrefabParentObject: {fileID: 0}
  m_PrefabInternal: {fileID: 100100000}
  m_GameObject: {fileID: 1515666497356320}
  m_LocalRotation: {x: 0.7071068, y: -0, z: -0, w: 0.7071068}
  m_LocalPosition: {x: 0, y: 1156.5951, z: 0.00012207031}
  m_LocalScale: {x: 1, y: 1, z: 1}
  m_Children: []
  m_Father: {fileID: 4241199123354982}
  m_RootOrder: 2
  m_LocalEulerAnglesHint: {x: 0, y: 0, z: 0}
--- !u!20 &20842128896293004
Camera:
  m_ObjectHideFlags: 1
  m_PrefabParentObject: {fileID: 0}
  m_PrefabInternal: {fileID: 100100000}
  m_GameObject: {fileID: 1357315518497478}
  m_Enabled: 0
  serializedVersion: 2
  m_ClearFlags: 2
  m_BackGroundColor: {r: 0, g: 0, b: 0, a: 0}
  m_NormalizedViewPortRect:
    serializedVersion: 2
    x: 0
    y: 0
    width: 1
    height: 1
  near clip plane: 0.3
  far clip plane: 1559.8
  field of view: 60
  orthographic: 1
  orthographic size: 17500
  m_Depth: 0
  m_CullingMask:
    serializedVersion: 2
    m_Bits: 256
  m_RenderingPath: -1
  m_TargetTexture: {fileID: 0}
  m_TargetDisplay: 0
  m_TargetEye: 3
  m_HDR: 0
  m_AllowMSAA: 1
  m_AllowDynamicResolution: 0
  m_ForceIntoRT: 0
  m_OcclusionCulling: 1
  m_StereoConvergence: 10
  m_StereoSeparation: 0.022
--- !u!20 &20975967656252160
Camera:
  m_ObjectHideFlags: 1
  m_PrefabParentObject: {fileID: 0}
  m_PrefabInternal: {fileID: 100100000}
  m_GameObject: {fileID: 1515666497356320}
  m_Enabled: 0
  serializedVersion: 2
  m_ClearFlags: 2
  m_BackGroundColor: {r: 0, g: 0, b: 0, a: 0}
  m_NormalizedViewPortRect:
    serializedVersion: 2
    x: 0
    y: 0
    width: 1
    height: 1
  near clip plane: 0.3
  far clip plane: 1421.81
  field of view: 60
  orthographic: 1
  orthographic size: 17500
  m_Depth: 0
  m_CullingMask:
    serializedVersion: 2
    m_Bits: 256
  m_RenderingPath: 1
  m_TargetTexture: {fileID: 0}
  m_TargetDisplay: 0
  m_TargetEye: 3
  m_HDR: 0
  m_AllowMSAA: 1
  m_AllowDynamicResolution: 0
  m_ForceIntoRT: 0
  m_OcclusionCulling: 1
  m_StereoConvergence: 10
  m_StereoSeparation: 0.022
--- !u!23 &23061123961430808
MeshRenderer:
  m_ObjectHideFlags: 1
  m_PrefabParentObject: {fileID: 0}
  m_PrefabInternal: {fileID: 100100000}
  m_GameObject: {fileID: 1940541430423230}
  m_Enabled: 1
  m_CastShadows: 0
  m_ReceiveShadows: 0
  m_DynamicOccludee: 1
  m_MotionVectors: 1
  m_LightProbeUsage: 0
  m_ReflectionProbeUsage: 0
  m_RenderingLayerMask: 4294967295
  m_Materials:
  - {fileID: 0}
  m_StaticBatchInfo:
    firstSubMesh: 0
    subMeshCount: 0
  m_StaticBatchRoot: {fileID: 0}
  m_ProbeAnchor: {fileID: 0}
  m_LightProbeVolumeOverride: {fileID: 0}
  m_ScaleInLightmap: 1
  m_PreserveUVs: 0
  m_IgnoreNormalsForChartDetection: 0
  m_ImportantGI: 0
  m_StitchLightmapSeams: 0
  m_SelectedEditorRenderState: 1
  m_MinimumChartSize: 4
  m_AutoUVMaxDistance: 0.5
  m_AutoUVMaxAngle: 89
  m_LightmapParameters: {fileID: 0}
  m_SortingLayerID: 0
  m_SortingLayer: 0
  m_SortingOrder: -1
--- !u!23 &23686942730645932
MeshRenderer:
  m_ObjectHideFlags: 1
  m_PrefabParentObject: {fileID: 0}
  m_PrefabInternal: {fileID: 100100000}
  m_GameObject: {fileID: 1758287297954040}
  m_Enabled: 1
  m_CastShadows: 1
  m_ReceiveShadows: 1
  m_DynamicOccludee: 1
  m_MotionVectors: 1
  m_LightProbeUsage: 1
  m_ReflectionProbeUsage: 1
  m_RenderingLayerMask: 4294967295
  m_Materials:
  - {fileID: 10303, guid: 0000000000000000f000000000000000, type: 0}
  m_StaticBatchInfo:
    firstSubMesh: 0
    subMeshCount: 0
  m_StaticBatchRoot: {fileID: 0}
  m_ProbeAnchor: {fileID: 0}
  m_LightProbeVolumeOverride: {fileID: 0}
  m_ScaleInLightmap: 1
  m_PreserveUVs: 1
  m_IgnoreNormalsForChartDetection: 0
  m_ImportantGI: 0
  m_StitchLightmapSeams: 0
  m_SelectedEditorRenderState: 3
  m_MinimumChartSize: 4
  m_AutoUVMaxDistance: 0.5
  m_AutoUVMaxAngle: 89
  m_LightmapParameters: {fileID: 0}
  m_SortingLayerID: 0
  m_SortingLayer: 0
  m_SortingOrder: 0
--- !u!33 &33052729237368482
MeshFilter:
  m_ObjectHideFlags: 1
  m_PrefabParentObject: {fileID: 0}
  m_PrefabInternal: {fileID: 100100000}
  m_GameObject: {fileID: 1940541430423230}
  m_Mesh: {fileID: 0}
--- !u!33 &33226959580973564
MeshFilter:
  m_ObjectHideFlags: 1
  m_PrefabParentObject: {fileID: 0}
  m_PrefabInternal: {fileID: 100100000}
  m_GameObject: {fileID: 1758287297954040}
  m_Mesh: {fileID: 10209, guid: 0000000000000000e000000000000000, type: 0}
--- !u!64 &64136162470719580
MeshCollider:
  m_ObjectHideFlags: 1
  m_PrefabParentObject: {fileID: 0}
  m_PrefabInternal: {fileID: 100100000}
  m_GameObject: {fileID: 1758287297954040}
  m_Material: {fileID: 0}
  m_IsTrigger: 0
  m_Enabled: 1
  serializedVersion: 3
  m_Convex: 0
  m_CookingOptions: 14
  m_SkinWidth: 0.01
  m_Mesh: {fileID: 10209, guid: 0000000000000000e000000000000000, type: 0}
--- !u!114 &114057160989940048
MonoBehaviour:
  m_ObjectHideFlags: 1
  m_PrefabParentObject: {fileID: 0}
  m_PrefabInternal: {fileID: 100100000}
  m_GameObject: {fileID: 1940541430423230}
  m_Enabled: 1
  m_EditorHideFlags: 0
  m_Script: {fileID: 11500000, guid: 5e7a52d786954b246ab3797052502655, type: 3}
  m_Name: 
  m_EditorClassIdentifier: 
  showLighting: 1
  OtherTAB: 1
  showGradient: 0
  showPointLights: 0
  showNoiseProperties: 0
  showVolumeProperties: 0
  showColorTab: 0
  tempShadowCaster: 0
  showCustomizationOptions: 0
  showDebugOptions: 0
  showOtherOptions: 1
  generalInfo: 1
  TexturesGroup: 0
  BackgroundImagesPath: "D:/\u6848\u5B50/2018/\u6C34\u4FDDVR/Assets/FogVolume/Scripts/Editor/Themes/png"
  _FogType: 1
  RenderableInSceneView: 1
  ShadowCaster: {fileID: 0}
  _PerformanceLUT: {fileID: 2800000, guid: f651c771afb96204b85e925622f5e2b9, type: 3}
  fogVolumeScale: {x: 35000, y: 314.8, z: 35000}
  FogMainColor: {r: 1, g: 1, b: 1, a: 1}
  _FogColor: {r: 0.6691177, g: 0.8083164, b: 1, a: 1}
  _AmbientAffectsFogColor: 0
  Exposure: 2.89
  Offset: 0.261
  Gamma: 0.3
  Tonemap: 0
  Visibility: 3.88
  ColorAdjust: 0
  _SelfShadowSteps: 3
  ShadowCameraSkippedFrames: 0
  _SelfShadowColor: {r: 0, g: 0, b: 0, a: 1}
  VolumeFogInscatteringAnisotropy: 0.85
  VolumeFogInscatteringIntensity: 0.1
  VolumeFogInscatteringStartDistance: 10
  VolumeFogInscatteringTransitionWideness: 1
  VolumeFogInscatteringColor: {r: 1, g: 1, b: 1, a: 1}
  VolumeFogInscattering: 0
  HeightAbsorption: 0.616
  HeightAbsorptionMin: -1
  HeightAbsorptionMax: -1
  SunAttached: 0
  Sun: {fileID: 0}
  _ShadeNoise: 0
  _DirectionalLighting: 0
  _DirectionalLightingDistance: 0.0033
  DirectLightingShadowDensity: 2.68
  LightExtinctionColor: {r: 0.7389706, g: 0.8277428, b: 0.9852941, a: 1}
  DirectLightingShadowSteps: 1
  bAbsorption: 1
  Absorption: 0.48
  _LightExposure: 1
  Lambert: 0
  LambertianBias: 0.94
  NormalDistance: 0.00096
  DirectLightingAmount: 1
  DirectLightingDistance: 242.2
  ShadowBrightness: 3
  _AmbientColor: {r: 0.33906618, g: 0.59509915, b: 0.809, a: 0.528}
  ShadowShift: 0.018
  PointLightsIntensity: 1.21
  PointLightingDistance: 600
  PointLightingDistance2Camera: 15
  PointLightCullSizeMultiplier: 1
  PointLightsActive: 0
  EnableInscattering: 1
  InscatteringColor: {r: 1, g: 1, b: 1, a: 1}
  _LightHaloTexture: {fileID: 2800000, guid: d162150aa9d3280428e461d214af4b27, type: 3}
  CoverageTex: {fileID: 0}
  LightHalo: 0
  _HaloWidth: 0.713
  _HaloOpticalDispersion: 3.76
  _HaloRadius: 0.192
  _HaloIntensity: 99
  _HaloAbsorption: 0.5
  InscatteringShape: 0.45
  InscatteringIntensity: 0.257
  InscatteringStartDistance: 0
  InscatteringTransitionWideness: 1
  EnableNoise: 1
  Octaves: 1
  _DetailMaskingThreshold: 18
  bSphericalFade: 0
  SphericalFadeDistance: 404.6
  DetailDistance: 5000
  DetailTiling: 37.8
  _DetailRelativeSpeed: 0.91
  _BaseRelativeSpeed: 0.14
  _NoiseDetailRange: 0.693
  _Curl: 0.749
  BaseTiling: 29.9
  Coverage: 1.19
  NoiseDensity: 0.34
  _3DNoiseScale: 0.1
  Iterations: 65
  _BlendMode: 1
  IterationStep: 5001
  _OptimizationFactor: 0.00000001
  _SamplingMethod: 0
  _VisibleByReflectionProbeStatic: 1
  GameCameraGO: {fileID: 0}
  _DebugMode: 0
  useHeightGradient: 1
  GradMin: 1
  GradMax: 0.24
  GradMin2: -1
  GradMax2: -1
  _NoiseVolume2: {fileID: 0}
  _NoiseVolume: {fileID: 11700000, guid: ce515a5a715cb574eb40037cfb1ab766, type: 2}
  NoiseIntensity: 0.611
  NoiseContrast: 11.8
  FadeDistance: 13717
  Vortex: 0.36
  _VortexAxis: 1
  bVolumeFog: 0
  VolumeFogInscatterColorAffectedWithFogColor: 1
  _LightScatterMethod: 1
  rotation: 324
  RotationSpeed: 0
  Speed: {x: 10, y: 0, z: 0, w: 0}
  Stretch: {x: 0, y: 0, z: 0, w: 0}
  SceneCollision: 0
  ShowPrimitives: 0
  EnableDistanceFields: 0
  _PrimitiveEdgeSoftener: 3
  _PrimitiveCutout: 0
  Constrain: -2.92
  _SceneIntersectionSoftness: 50
  _jitter: 0
  FogRenderer: {fileID: 23061123961430808}
  _InspectorBackground:
  - {fileID: 0}
  - {fileID: 0}
  - {fileID: 0}
  - {fileID: 0}
  - {fileID: 0}
  - {fileID: 0}
  - {fileID: 0}
  - {fileID: 0}
  - {fileID: 0}
  - {fileID: 0}
  _InspectorBackgroundIndex: 0
  Description: "I don't care what they say about me. \nThey say that Im not as pretty
    as the others \nOkay, its fine. But you know what? \nNobody is faster than me
    when\n it is about clouds.\nI am the fastest out there because I am\n rendered
    at very low resolution \nand low iteration count. Im also fast and \nfree of artifacts
    because I don't \ncollide with anybody. I am rendered in the \nbackground thanks
    to my Ztest \nvalue. The camera doesn't need to compute \ndepth for me, I don't
    care, I don't\nneed it. And that's why I am so performant!"
  EnableGradient: 0
  Gradient: {fileID: 2800000, guid: 01230d46eff99344c8996617a56df9af, type: 3}
  HideWireframe: 1
  DrawOrder: -1
  ShowDebugGizmos: 0
  RT_Opacity: {fileID: 0}
  RT_OpacityBlur: {fileID: 0}
  ShadowCutoff: 0.814
  CastShadows: 0
  ShadowCameraGO: {fileID: 0}
  shadowCameraPosition: 1245
  _ShadowCamera: {fileID: 0}
  _PushAlpha: 1
  FogVolumeShader: {fileID: 4800000, guid: 6040e6c91df9d9d47b7e5426d41a7471, type: 3}
  ShadowProjector: {fileID: 0}
  ShadowProjectorMesh: {fileID: 10202, guid: 0000000000000000e000000000000000, type: 0}
  ShadowColor: {r: 0.53382355, g: 0.56987834, b: 0.6, a: 1}
  _ztest: 4
  _FogVolumeData: {fileID: 0}
  ExcludeFromLowRes: 0
  PointLightCPUMaxDistance: 1
  PointLightScreenMargin: 1
  PointLightsRealTimeUpdate: 1
  PointLightBoxCheck: 1
  PrimitivesRealTimeUpdate: 0
  IsVisible: 1
  CreateSurrogate: 0
  InjectCustomDepthBuffer: 0
  UseConvolvedLightshafts: 0
--- !u!114 &114460814969243368
MonoBehaviour:
  m_ObjectHideFlags: 1
  m_PrefabParentObject: {fileID: 0}
  m_PrefabInternal: {fileID: 100100000}
  m_GameObject: {fileID: 1940541430423230}
  m_Enabled: 1
  m_EditorHideFlags: 0
  m_Script: {fileID: 11500000, guid: a65425c0575171a49b832f4d0a8cc88c, type: 3}
  m_Name: 
  m_EditorClassIdentifier: 
  GameCamera: {fileID: 0}
  FogOrderCameraAbove: 4
  FogOrderCameraBelow: -1
  HeightThreshold: 225
  thisFog: {fileID: 114057160989940048}
  CurrentHeight: 11.990549
  Horizon: {fileID: 1758287297954040}
--- !u!114 &114645908948767442
MonoBehaviour:
  m_ObjectHideFlags: 1
  m_PrefabParentObject: {fileID: 0}
  m_PrefabInternal: {fileID: 100100000}
  m_GameObject: {fileID: 1940541430423230}
  m_Enabled: 1
  m_EditorHideFlags: 0
  m_Script: {fileID: 11500000, guid: 28ead9d9608fc8d43827ac46c26c6dae, type: 3}
  m_Name: 
  m_EditorClassIdentifier: 
--- !u!114 &114820844535047198
MonoBehaviour:
  m_ObjectHideFlags: 1
  m_PrefabParentObject: {fileID: 0}
  m_PrefabInternal: {fileID: 100100000}
  m_GameObject: {fileID: 1515666497356320}
  m_Enabled: 0
  m_EditorHideFlags: 0
  m_Script: {fileID: 11500000, guid: 68069141b4834cc4c9ba4adc8aabbf07, type: 3}
  m_Name: 
  m_EditorClassIdentifier: 
  RT_Opacity: {fileID: 0}
  RT_OpacityBlur: {fileID: 0}
  RT_PostProcess: {fileID: 0}
  textureSize: 128
  iterations: 3
  blurSpread: 0
  Downsampling: 0
--- !u!114 &114871609041711360
MonoBehaviour:
  m_ObjectHideFlags: 1
  m_PrefabParentObject: {fileID: 0}
  m_PrefabInternal: {fileID: 100100000}
  m_GameObject: {fileID: 1940541430423230}
  m_Enabled: 1
  m_EditorHideFlags: 0
  m_Script: {fileID: 11500000, guid: a8340c6d549ef1c4099a619f31eef29e, type: 3}
  m_Name: 
  m_EditorClassIdentifier: 
--- !u!114 &114911583449147074
MonoBehaviour:
  m_ObjectHideFlags: 1
  m_PrefabParentObject: {fileID: 0}
  m_PrefabInternal: {fileID: 100100000}
  m_GameObject: {fileID: 1357315518497478}
  m_Enabled: 1
  m_EditorHideFlags: 0
  m_Script: {fileID: 11500000, guid: 68069141b4834cc4c9ba4adc8aabbf07, type: 3}
  m_Name: 
  m_EditorClassIdentifier: 
  RT_Opacity: {fileID: 0}
  RT_OpacityBlur: {fileID: 0}
  RT_PostProcess: {fileID: 0}
  textureSize: 256
  iterations: 1
  blurSpread: 0
  Downsampling: 1
