%YAML 1.1
%TAG !u! tag:unity3d.com,2011:
--- !u!114 &11400000
MonoBehaviour:
  m_ObjectHideFlags: 0
  m_PrefabParentObject: {fileID: 0}
  m_PrefabInternal: {fileID: 0}
  m_GameObject: {fileID: 0}
  m_Enabled: 1
  m_EditorHideFlags: 0
  m_Script: {fileID: 11500000, guid: dc38003c0e0db6641a4762d4f392de52, type: 3}
  m_Name: Default
  m_EditorClassIdentifier: 
  prefabs:
  - gameObject: {fileID: 1368964778927298, guid: 9987027245083a0439cf71a4d2fb014f,
      type: 2}
    settings:
      rotationRange: {x: 0, y: 0}
      scaleRange: {x: 0, y: 0}
  - gameObject: {fileID: 1902597010549652, guid: 925abe339c96c634d9261abb0fb1e355,
      type: 2}
    settings:
      rotationRange: {x: 0, y: 0}
      scaleRange: {x: 0, y: 0}
  - gameObject: {fileID: 1953540995522870, guid: faecca8d95816ed40aff7a3003b1e7ab,
      type: 2}
    settings:
      rotationRange: {x: 0, y: 0}
      scaleRange: {x: 0, y: 0}
