%YAML 1.1
%TAG !u! tag:unity3d.com,2011:
--- !u!1 &163584
GameObject:
  m_ObjectHideFlags: 0
  m_PrefabParentObject: {fileID: 0}
  m_PrefabInternal: {fileID: 100100000}
  serializedVersion: 5
  m_Component:
  - component: {fileID: 417542}
  - component: {fileID: 11463462}
  m_Layer: 0
  m_Name: AlembicExporter
  m_TagString: Untagged
  m_Icon: {fileID: 0}
  m_NavMeshLayer: 0
  m_StaticEditorFlags: 0
  m_IsActive: 1
--- !u!4 &417542
Transform:
  m_ObjectHideFlags: 1
  m_PrefabParentObject: {fileID: 0}
  m_PrefabInternal: {fileID: 100100000}
  m_GameObject: {fileID: 163584}
  m_LocalRotation: {x: 0, y: 0, z: 0, w: 1}
  m_LocalPosition: {x: 0, y: 0, z: 0}
  m_LocalScale: {x: 1, y: 1, z: 1}
  m_Children: []
  m_Father: {fileID: 0}
  m_RootOrder: 0
  m_LocalEulerAnglesHint: {x: 0, y: 0, z: 0}
--- !u!114 &11463462
MonoBehaviour:
  m_ObjectHideFlags: 1
  m_PrefabParentObject: {fileID: 0}
  m_PrefabInternal: {fileID: 100100000}
  m_GameObject: {fileID: 163584}
  m_Enabled: 1
  m_EditorHideFlags: 0
  m_Script: {fileID: 11500000, guid: 210d8348e88bdfd499d152a7a14a9386, type: 3}
  m_Name: 
  m_EditorClassIdentifier: 
  m_outputPath: 
  m_conf:
    archiveType: 1
    timeSamplingType: 0
    startTime: 0
    frameRate: 30
    xformType: 1
    swapHandedness:
      v: 1
    swapFaces:
      v: 0
    scale: 1
  m_scope: 0
  m_preserveTreeStructure: 1
  m_ignoreDisabled: 1
  m_captureMeshRenderer: 1
  m_captureSkinnedMeshRenderer: 1
  m_captureParticleSystem: 1
  m_captureCamera: 1
  m_customCapturer: 1
  m_captureOnStart: 0
  m_maxCaptureFrame: 0
  m_detailedLog: 0
--- !u!1001 &100100000
Prefab:
  m_ObjectHideFlags: 1
  serializedVersion: 2
  m_Modification:
    m_TransformParent: {fileID: 0}
    m_Modifications:
    - target: {fileID: 0}
      propertyPath: m_outputPath
      value: 
      objectReference: {fileID: 0}
    m_RemovedComponents: []
  m_ParentPrefab: {fileID: 0}
  m_RootGameObject: {fileID: 163584}
  m_IsPrefabParent: 1
